module github.com/mendersoftware/go-lib-micro

go 1.18

require (
	github.com/ant0ine/go-json-rest v3.3.3-0.20170913041208-ebb33769ae01+incompatible
	github.com/gin-gonic/gin v1.8.1
	github.com/google/uuid v1.3.0
	github.com/pkg/errors v0.9.1
	github.com/sirupsen/logrus v1.9.0
	github.com/spf13/viper v1.13.0
	github.com/stretchr/testify v1.8.1
	go.mongodb.org/mongo-driver v1.10.2
	gopkg.in/tomb.v2 v2.0.0-20161208151619-d5d1b5820637
)

require (
	github.com/davecgh/go-spew v1.1.1 // indirect
	github.com/fsnotify/fsnotify v1.5.4 // indirect
	github.com/gin-contrib/sse v0.1.0 // indirect
	github.com/go-playground/locales v0.14.0 // indirect
	github.com/go-playground/universal-translator v0.18.0 // indirect
	github.com/go-playground/validator/v10 v10.10.0 // indirect
	github.com/goccy/go-json v0.9.7 // indirect
	github.com/golang/snappy v0.0.1 // indirect
	github.com/hashicorp/hcl v1.0.0 // indirect
	github.com/json-iterator/go v1.1.12 // indirect
	github.com/klauspost/compress v1.13.6 // indirect
	github.com/leodido/go-urn v1.2.1 // indirect
	github.com/magiconair/properties v1.8.6 // indirect
	github.com/mattn/go-isatty v0.0.14 // indirect
	github.com/mitchellh/mapstructure v1.5.0 // indirect
	github.com/modern-go/concurrent v0.0.0-20180306012644-bacd9c7ef1dd // indirect
	github.com/modern-go/reflect2 v1.0.2 // indirect
	github.com/montanaflynn/stats v0.0.0-20171201202039-1bf9dbcd8cbe // indirect
	github.com/pelletier/go-toml v1.9.5 // indirect
	github.com/pelletier/go-toml/v2 v2.0.5 // indirect
	github.com/pmezard/go-difflib v1.0.0 // indirect
	github.com/spf13/afero v1.8.2 // indirect
	github.com/spf13/cast v1.5.0 // indirect
	github.com/spf13/jwalterweatherman v1.1.0 // indirect
	github.com/spf13/pflag v1.0.5 // indirect
	github.com/stretchr/objx v0.5.0 // indirect
	github.com/subosito/gotenv v1.4.1 // indirect
	github.com/ugorji/go/codec v1.2.7 // indirect
	github.com/xdg-go/pbkdf2 v1.0.0 // indirect
	github.com/xdg-go/scram v1.1.1 // indirect
	github.com/xdg-go/stringprep v1.0.3 // indirect
	github.com/youmark/pkcs8 v0.0.0-20181117223130-1be2e3e5546d // indirect
	golang.org/x/crypto v0.0.0-20220622213112-05595931fe9d // indirect
	golang.org/x/net v0.0.0-20220520000938-2e3eb7b945c2 // indirect
	golang.org/x/sync v0.0.0-20210220032951-036812b2e83c // indirect
	golang.org/x/sys v0.0.0-20220715151400-c0bba94af5f8 // indirect
	golang.org/x/text v0.3.7 // indirect
	google.golang.org/protobuf v1.28.0 // indirect
	gopkg.in/ini.v1 v1.67.0 // indirect
	gopkg.in/yaml.v2 v2.4.0 // indirect
	gopkg.in/yaml.v3 v3.0.1 // indirect
)
